{ 
    "_id" : ObjectId("5c9e7c4930c49e0001b261d7"), 
    "name" : "informatique", 
    "inHome" : true, 
    "_class" : "com.category.app.entities.Category"
}
{ 
    "_id" : ObjectId("5ce535243cdea20001085453"), 
    "name" : "Meuble", 
    "inHome" : true, 
    "_class" : "com.category.app.entities.Category"
}
{ 
    "_id" : ObjectId("5d0fbd24cbff2700013705ea"), 
    "name" : "Electromenager", 
    "inHome" : true, 
    "_class" : "com.category.app.entities.Category"
}
{ 
    "_id" : ObjectId("5d0fbd6fcbff2700013705ed"), 
    "name" : "Bricolage", 
    "inHome" : false, 
    "_class" : "com.category.app.entities.Category"
}
{ 
    "_id" : ObjectId("5d0fbdd4cbff2700013705f0"), 
    "name" : "Décoration", 
    "inHome" : true, 
    "_class" : "com.category.app.entities.Category"
}
