{ 
    "_id" : ObjectId("5c9e80f8adbe1d0001779633"), 
    "designation" : "samsung a7 2018", 
    "description" : "Samsung Galaxy A7 - 6- 4 Go - 128 Go - Bleu - Garantie 1 An", 
    "quantity" : NumberInt(2), 
    "price" : 1300.0, 
    "priceHistory" : [
        {
            "price" : "1250", 
            "updateDate" : "2019-03-01T08:09:12.337Z"
        }, 
        {
            "price" : "1200", 
            "updateDate" : "2019-04-22T08:21:49.708Z"
        }, 
        {
            "price" : "1300", 
            "updateDate" : "2019-05-30T08:25:58.154Z"
        }, 
        {
            "price" : "1330", 
            "updateDate" : "2019-05-31T09:42:50.145Z"
        }
    ], 
    "inHome" : true, 
    "seller" : "5cd9107236d1a0000127fb82", 
    "subCategory" : "5c9e7c5330c49e0001b261d8", 
    "category" : "5c9e7c4930c49e0001b261d7", 
    "deleted" : false, 
    "_class" : "com.product.app.entities.Product"
}
{ 
    "_id" : ObjectId("5ca239f7adbe1d0001850fe7"), 
    "designation" : "ZEN Lit scandinave", 
    "description" : "ZEN Lit scandinave tissu gris foncé + Sommier et tête de lit - l 160 x L 200 cm ", 
    "quantity" : NumberInt(1), 
    "price" : 1000.0, 
    "inHome" : true, 
    "seller" : "5cd9117636d1a0000127fb83", 
    "subCategory" : "5ce535983cdea20001085454", 
    "category" : "5ce535243cdea20001085453", 
    "deleted" : false, 
    "_class" : "com.product.app.entities.Product", 
    "priceHistory" : [
        {
            "price" : "1000", 
            "updateDate" : "2019-03-01T08:09:12.337Z"
        }, 
        {
            "price" : "900", 
            "updateDate" : "2019-05-31T09:42:50.145Z"
        }
    ]
}
{ 
    "_id" : ObjectId("5ca5c6afadbe1d00014ac3b1"), 
    "designation" : "samsung S9", 
    "description" : "samsung", 
    "quantity" : NumberInt(1), 
    "price" : 3000.0, 
    "priceHistory" : [
        {
            "price" : "3000", 
            "updateDate" : "2019-03-01T08:09:12.337Z"
        }, 
        {
            "price" : "2900", 
            "updateDate" : "2019-05-31T09:42:50.145Z"
        }
    ], 
    "inHome" : true, 
    "seller" : "5cd9107236d1a0000127fb82", 
    "subCategory" : "5c9e7c5330c49e0001b261d8", 
    "category" : "5c9e7c4930c49e0001b261d7", 
    "deleted" : false, 
    "_class" : "com.product.app.entities.Product"
}
{ 
    "_id" : ObjectId("5caf4d69adbe1d00019908d8"), 
    "designation" : "asus", 
    "description" : "asus ", 
    "quantity" : NumberInt(0), 
    "price" : 3000.0, 
    "priceHistory" : [
        {
            "price" : "3000", 
            "updateDate" : "2019-03-01T08:09:12.337Z"
        }, 
        {
            "price" : "2900", 
            "updateDate" : "2019-05-31T09:42:50.145Z"
        }
    ], 
    "inHome" : true, 
    "seller" : "5cd9107236d1a0000127fb82", 
    "subCategory" : "5ca5c67e30c49e0001ac39a0", 
    "category" : "5c9e7c4930c49e0001b261d7", 
    "deleted" : false, 
    "_class" : "com.product.app.entities.Product"
}
{ 
    "_id" : ObjectId("5ccb083d48f8a6000174cca2"), 
    "designation" : "Porte Chaussures", 
    "description" : "Porte Chaussures Oxford - Bois MDF - Blanc - 60* 30* 115 cm", 
    "quantity" : NumberInt(1), 
    "price" : 200.0, 
    "priceHistory" : [
        {
            "price" : "200", 
            "updateDate" : "2019-03-01T08:09:12.337Z"
        }, 
        {
            "price" : "250", 
            "updateDate" : "2019-05-31T09:42:50.145Z"
        }
    ], 
    "inHome" : true, 
    "seller" : "5cd9117636d1a0000127fb83", 
    "subCategory" : "5ce535a23cdea20001085455", 
    "category" : "5ce535243cdea20001085453", 
    "deleted" : false, 
    "_class" : "com.product.app.entities.Product"
}
