{ 
    "_id" : ObjectId("5c9e7c5330c49e0001b261d8"), 
    "name" : "smartphone", 
    "category" : "5c9e7c4930c49e0001b261d7", 
    "_class" : "com.category.app.entities.SubCategory"
}
{ 
    "_id" : ObjectId("5ca5c67e30c49e0001ac39a0"), 
    "name" : "ordinateurs", 
    "category" : "5c9e7c4930c49e0001b261d7", 
    "_class" : "com.category.app.entities.SubCategory"
}
{ 
    "_id" : ObjectId("5ce525893cdea20001cc1215"), 
    "name" : "Accessoires", 
    "category" : "5c9e7c4930c49e0001b261d7", 
    "_class" : "com.category.app.entities.SubCategory"
}
{ 
    "_id" : ObjectId("5ce535983cdea20001085454"), 
    "name" : "Lits", 
    "category" : "5ce535243cdea20001085453", 
    "_class" : "com.category.app.entities.SubCategory"
}
{ 
    "_id" : ObjectId("5ce535a23cdea20001085455"), 
    "name" : "Meuble d'entree", 
    "category" : "5ce535243cdea20001085453", 
    "_class" : "com.category.app.entities.SubCategory"
}
{ 
    "_id" : ObjectId("5cf126b424aa9a0001ad1924"), 
    "name" : "Commode", 
    "category" : "5ce535243cdea20001085453", 
    "_class" : "com.category.app.entities.SubCategory"
}
{ 
    "_id" : ObjectId("5d0fbd24cbff2700013705eb"), 
    "name" : "Four", 
    "category" : "5d0fbd24cbff2700013705ea", 
    "_class" : "com.category.app.entities.SubCategory"
}
{ 
    "_id" : ObjectId("5d0fbd24cbff2700013705ec"), 
    "name" : "Machine a laver", 
    "category" : "5d0fbd24cbff2700013705ea", 
    "_class" : "com.category.app.entities.SubCategory"
}
{ 
    "_id" : ObjectId("5d0fbd6fcbff2700013705ee"), 
    "name" : "Outillage", 
    "category" : "5d0fbd6fcbff2700013705ed", 
    "_class" : "com.category.app.entities.SubCategory"
}
{ 
    "_id" : ObjectId("5d0fbd6fcbff2700013705ef"), 
    "name" : "Menuiserie", 
    "category" : "5d0fbd6fcbff2700013705ed", 
    "_class" : "com.category.app.entities.SubCategory"
}
{ 
    "_id" : ObjectId("5d0fbdd4cbff2700013705f1"), 
    "name" : "Tapis", 
    "category" : "5d0fbdd4cbff2700013705f0", 
    "_class" : "com.category.app.entities.SubCategory"
}
{ 
    "_id" : ObjectId("5d0fbdd4cbff2700013705f2"), 
    "name" : "Luminaire", 
    "category" : "5d0fbdd4cbff2700013705f0", 
    "_class" : "com.category.app.entities.SubCategory"
}
